Introducción a R con datos del CIS
…
mutate para crear variables nuevas.

summarise para resumir valores de variables.

group_by para agrupar por una variable y después operar, visualizar, etc.

Filter

Filter ya lo hemos utilizado previamente. Como hemos comentado, sirve para filtrar casos u observaciones. En el caso de la encuesta del CIS, cada caso es un entrevistado. Por ejemplo, si quisiéramos quedarnos solo con los que valoran a Pedro Sánchez con un 5 o más sobre 10.

dataset %>% 
  filter(P3406 >=5)

## # A tibble: 3,868 x 309
##     ESTU  CUES  CCAA  PROV   MUN TAMUNI CAPITAL DISTR SECCION ENTREV    P0
##    <dbl> <dbl> <dbl> <dbl> <dbl>  <dbl>   <dbl> <dbl>   <dbl>  <dbl> <dbl>
##  1  3248   519    11     6    15      5       2     0       0      0     1
##  2  3248   520    11     6    15      5       2     0       0      0     1
##  3  3248   522    11     6    15      5       2     0       0      0     1
##  4  3248   523    11     6    15      5       2     0       0      0     1
##  5  3248   525    11     6    15      5       2     0       0      0     1
##  6  3248   527    11     6    15      5       2     0       0      0     1
##  7  3248   530    11     6    15      5       2     0       0      0     1
##  8  3248   531    11     6    15      5       2     0       0      0     1
##  9  3248   533    11     6    15      5       2     0       0      0     1
## 10  3248   535    11     6    15      5       2     0       0      0     1
## # ... with 3,858 more rows, and 298 more variables: P1 <dbl>, P2 <dbl>,
## #   P3 <dbl>, P4 <dbl>, P5 <dbl>, P6 <dbl>, P7 <dbl>, P8 <dbl>,
## #   P901 <dbl>, P902 <dbl>, P903 <dbl>, P904 <dbl>, P905 <dbl>,
## #   P906 <dbl>, P907 <dbl>, P908 <dbl>, P909 <dbl>, P910 <dbl>,
## #   P911 <dbl>, P912 <dbl>, P10 <dbl>, P10A01 <dbl>, P10A02 <dbl>,
## #   P10A03 <dbl>, P10A04 <dbl>, P10A05 <dbl>, P10A06 <dbl>, P10A07 <dbl>,
## #   P10A08 <dbl>, P10A09 <dbl>, P10A10 <dbl>, P10A11 <dbl>, P10A12 <dbl>,
## #   P10A13 <dbl>, P10A14 <dbl>, P11 <dbl>, P11A <dbl>, P11B <dbl>,
## #   P12 <dbl>, P1301 <dbl>, P1302 <dbl>, P1303 <dbl>, P1304 <dbl>,
…
Mayor o igual que (>=).

Menor o igual que (<=).

Igual que (==).

Distinto de (!=).

Con el uso de | (o) o & (y) se pueden concatenar varias condiciones en la función filter, como se muestra en el siguiente fragmento de código.

dataset %>% 
  filter(P3406 >=5 | P3404 >= 5)

## # A tibble: 4,344 x 309
##     ESTU  CUES  CCAA  PROV   MUN TAMUNI CAPITAL DISTR SECCION ENTREV    P0
##    <dbl> <dbl> <dbl> <dbl> <dbl>  <dbl>   <dbl> <dbl>   <dbl>  <dbl> <dbl>
##  1  3248   519    11     6    15      5       2     0       0      0     1
##  2  3248   520    11     6    15      5       2     0       0      0     1
##  3  3248   522    11     6    15      5       2     0       0      0     1
##  4  3248   523    11     6    15      5       2     0       0      0     1
##  5  3248   525    11     6    15      5       2     0       0      0     1
##  6  3248   527    11     6    15      5       2     0       0      0     1
##  7  3248   530    11     6    15      5       2     0       0      0     1
##  8  3248   531    11     6    15      5       2     0       0      0     1
##  9  3248   533    11     6    15      5       2     0       0      0     1
## 10  3248   535    11     6    15      5       2     0       0      0     1
## # ... with 4,334 more rows, and 298 more variables: P1 <dbl>, P2 <dbl>,
## #   P3 <dbl>, P4 <dbl>, P5 <dbl>, P6 <dbl>, P7 <dbl>, P8 <dbl>,
## #   P901 <dbl>, P902 <dbl>, P903 <dbl>, P904 <dbl>, P905 <dbl>,
## #   P906 <dbl>, P907 <dbl>, P908 <dbl>, P909 <dbl>, P910 <dbl>,
## #   P911 <dbl>, P912 <dbl>, P10 <dbl>, P10A01 <dbl>, P10A02 <dbl>,
## #   P10A03 <dbl>, P10A04 <dbl>, P10A05 <dbl>, P10A06 <dbl>, P10A07 <dbl>,
## #   P10A08 <dbl>, P10A09 <dbl>, P10A10 <dbl>, P10A11 <dbl>, P10A12 <dbl>,
## #   P10A13 <dbl>, P10A14 <dbl>, P11 <dbl>, P11A <dbl>, P11B <dbl>,
## #   P12 <dbl>, P1301 <dbl>, P1302 <dbl>, P1303 <dbl>, P1304 <dbl>,
…
Arrange

Para ordenar filas utilizaremos el comando arrange. En este caso queremos ordenar de menor a mayor por satisfacción con el funcionamiento de la democracia.

dataset %>%
  select(ESTU, CUES, P3) %>%
  arrange(P3)

## # A tibble: 5,943 x 3
##     ESTU  CUES    P3
##    <dbl> <dbl> <dbl>
##  1  3248   549     0
##  2  3248   568     0
##  3  3248   595     0
##  4  3248   599     0
##  5  3248   609     0
##  6  3248   612     0
##  7  3248  1893     0
##  8  3248  2614     0
##  9  3248  2625     0
## 10  3248  2626     0
## # ... with 5,933 more rows

Por el contrario, para ordenar de mayor a menor hay que usar el comando desc().

dataset %>%
  select(ESTU, CUES, P3) %>%
  arrange(desc(P3))

## # A tibble: 5,943 x 3
##     ESTU  CUES    P3
##    <dbl> <dbl> <dbl>
##  1  3248  2781    99
##  2  3248  2794    99
##  3  3248  2158    99
##  4  3248  5939    99
##  5  3248  2420    99
##  6  3248  2768    99
##  7  3248  3897    99
##  8  3248    32    99
##  9  3248  4348    99
## 10  3248  4199    99
## # ... with 5,933 more rows

Si ordenamos de forma descendente, primero nos saldrán los 98 de “N.S.”. Gracias a las pipes podemos combinar la función filter con arrange y eliminar los no sabe para después ordenar. Además tendremos un código más limpio y legible.

dataset %>%
  select(ESTU, CUES, P3) %>%
  filter(P3 != 98, P3 != 99) %>% 
  arrange(desc(P3))

## # A tibble: 5,764 x 3
##     ESTU  CUES    P3
##    <dbl> <dbl> <dbl>
##  1  3248   560    10
##  2  3248   575    10
##  3  3248   607    10
##  4  3248  1862    10
##  5  3248  1882    10
##  6  3248  1887    10
##  7  3248  1906    10
##  8  3248  2696    10
##  9  3248  4927    10
## 10  3248  2552    10
## # ... with 5,754 more rows

También se pueden encadenar varios arranges. En el siguiente caso ordenaremos primero de menor a mayor la P3 y después de mayor a menor por P4. En caso de que la P3 sea igual, las filas se ordenarán de mayor a menor por la P4.

dataset %>%
  select(ESTU, CUES, P3, P4) %>%
  filter(P3 != 98, P3 != 99, P4 != 8, P4 != 9) %>% 
  arrange(P3, desc(P4))

## # A tibble: 5,561 x 4
##     ESTU  CUES    P3    P4
##    <dbl> <dbl> <dbl> <dbl>
##  1  3248  1893     0     3
##  2  3248  2697     0     3
##  3  3248  4214     0     3
##  4  3248  4218     0     3
##  5  3248  4225     0     3
##  6  3248  5709     0     3
##  7  3248  4990     0     3
##  8  3248  5034     0     3
##  9  3248  5082     0     3
## 10  3248  5083     0     3
## # ... with 5,551 more rows
…
Una función muy similar a select es rename. Como su propio nombre indica, permite cambiar el nombre de las variables para hacerlas más manejables.

dataset %>%
  dplyr::rename(interespolitica = P1, interescampaña = P2, satisfacciondemocracia = P3)

Los dos últimos comandos se pueden combinar, de modo que se puede seleccionar y renombrar a la vez.

dataset %>% 
  select(interespolitica = P1, interescampaña = P2, satisfacciondemocracia = P3)

## # A tibble: 5,943 x 3
##    interespolitica interescampaña satisfacciondemocracia
##              <dbl>          <dbl>                  <dbl>
##  1               1              1                      1
##  2               2              2                      5
##  3               1              1                      5
##  4               2              2                      8
##  5               3              2                      5
##  6               1              2                      1
##  7               4              3                      5
##  8               3              4                      2
##  9               3              3                      4
## 10               2              2                      9
## # ... with 5,933 more rows
…
El comando mutate sirve para calcular nuevas variables. Este comando resultaría útil si quisiéramos, por ejemplo, calcular la distancia percibida entre PP y PSOE por los encuestados. Antes de operar con mutate hemos enviado a perdidos todos los 98 y 99 de las variables implicadas en los próximos ejemplos. También incorporamos select con esas variables implicadas para agilizar la computación y facilitar la visualización de los resultados de usar mutate.

dataset$P3301[dataset$P3301 == 98] <- NA
dataset$P3301[dataset$P3301 == 99] <- NA
dataset$P3302[dataset$P3302 == 98] <- NA
dataset$P3302[dataset$P3302 == 99] <- NA
dataset$P3302[dataset$P3303 == 98] <- NA
dataset$P3302[dataset$P3303 == 99] <- NA

dataset %>%
  select(P3301, P3302) %>%
  mutate(distpppsoe = P3302 - P3301)

## # A tibble: 5,943 x 3
##    P3301 P3302 distpppsoe
##    <dbl> <dbl>      <dbl>
##  1     5     7          2
##  2     3     8          5
##  3     4     6          2
##  4     2     9          7
##  5     3     8          5
##  6     2     9          7
##  7     3     8          5
##  8     4     8          4
##  9     4     7          3
## 10     2     8          6
## # ... with 5,933 more rows

También se puede añadir a lo anterior el cálculo de una segunda y una tercera variable, como la distancia percibida entre PSOE y Ciudadanos y entre PP y Ciudadanos. Con estas variables se puede operar dentro de la misma secuencia de código que las crea, sin necesidad de empezar una nueva.

dataset %>%
  select(P3301, P3302, P3303) %>%
  mutate(distpppsoe = P3302 - P3301, distpsoecs = P3301 - P3303, distppcs = P3302 - P3303)

## # A tibble: 5,943 x 6
##    P3301 P3302 P3303 distpppsoe distpsoecs distppcs
##    <dbl> <dbl> <dbl>      <dbl>      <dbl>    <dbl>
##  1     5     7     7          2         -2        0
##  2     3     8     7          5         -4        1
##  3     4     6     5          2         -1        1
##  4     2     9     7          7         -5        2
##  5     3     8     7          5         -4        1
##  6     2     9     7          7         -5        2
##  7     3     8     6          5         -3        2
##  8     4     8     6          4         -2        2
##  9     4     7     6          3         -2        1
## 10     2     8     6          6         -4        2
## # ... with 5,933 more rows

Estas nuevas variables creadas también pueden operar con estadísticos como la media. Para calcular la media es importante excluir los valores NA, ya que en caso de no hacerlo mediante el comando na.rm, la media no podrá ser calculada. Si en un cálculo hay un NA, el resultado será NA independientemente de la media de los demás valores. En el siguiente fragmento de código calculamos la distancia entre la ubicación ideológica del PSOE percibida por el entrevistado y la autoubicación media del PSOE percibida por la muestra.

dataset %>%
  select(P3301) %>%
  mutate(distpsoemedia = P3301 - mean(P3301, na.rm = TRUE))

## # A tibble: 5,943 x 2
##    P3301 distpsoemedia
##    <dbl>         <dbl>
##  1     5       1.00   
##  2     3      -0.997  
##  3     4       0.00341
##  4     2      -2.00   
##  5     3      -0.997  
##  6     2      -2.00   
##  7     3      -0.997  
##  8     4       0.00341
##  9     4       0.00341
## 10     2      -2.00   
## # ... with 5,933 more rows

Mutate añade las variables calculadas al conjunto de datos existente conservando todas las variables. Sin embargo, existe una variación de este comando, llamada transmute, que crea un conjunto de datos que solo contiene las variables de nueva creación.

dataset %>%
  transmute(distpppsoe = P3302 - P3301, distpsoecs = P3301 - P3303, distppcs = P3302 - P3303)

## # A tibble: 5,943 x 3
##    distpppsoe distpsoecs distppcs
##         <dbl>      <dbl>    <dbl>
##  1          2         -2        0
##  2          5         -4        1
##  3          2         -1        1
##  4          7         -5        2
##  5          5         -4        1
##  6          7         -5        2
##  7          5         -3        2
##  8          4         -2        2
##  9          3         -2        1
## 10          6         -4        2
## # ... with 5,933 more rows
…
